<?xml version="1.0" standalone="no"?>
<!DOCTYPE svg PUBLIC "-//W3C//DTD SVG 1.1//EN" "http://www.w3.org/Graphics/SVG/1.1/DTD/svg11.dtd">
<svg xmlns="http://www.w3.org/2000/svg">
<metadata>Generated by Fontastic.me</metadata>
<defs>
<font id="untitled-font-1" horiz-adv-x="512">
<font-face font-family="untitled-font-1" units-per-em="512" ascent="480" descent="-32"/>
<missing-glyph horiz-adv-x="512" />

<glyph glyph-name="home-advisor" unicode="&#97;" d="M81 377c-44-45-81-84-81-87 0-3 11-5 25-5 22 0 31 6 96 72l72 72 144-144 180 0-174 174-180 0z m54-34l-55-54 0-61c0-81 2-83 94-83l70 0 46-46c25-26 49-47 51-47 4 0 6 21 6 47l0 46 27 0c47 0 53 7 53 67l0 53-97 0-67 67c-36 37-68 67-70 67-2 0-28-25-58-56z"/>
</font></defs></svg>
